<?xml version="1.0"?>
<!--
    Основной файл описания робота
-->
<robot name="gazonbot" xmlns:xacro="http://www.ros.org/wiki/xacro">

    <!-- Подключение описаний -->
    <!-- Констатны и предопределённые значения -->
    <xacro:include filename="$(find mower_description)/urdf/constants.xacro" />

    <!-- Размеры и габариты -->
    <xacro:include filename="$(find mower_description)/urdf/sizes.xacro" />

    <!-- Материалы -->
    <xacro:include filename="$(find mower_description)/urdf/materials.xacro" />

    <!-- Макросы -->
    <xacro:include filename="$(find mower_description)/urdf/macros.xacro" />

    <!-- Детали -->
    <xacro:include filename="$(find mower_description)/urdf/links.xacro" />

    <!-- Крепления и соединения -->
    <xacro:include filename="$(find mower_description)/urdf/joints.xacro" />

    <!-- Трансмиссии -->
    <xacro:include filename="$(find mower_description)/urdf/transmissions.xacro" />

    <!-- Манифесты деталей для передачи в gazebo -->
    <xacro:include filename="$(find mower_description)/urdf/mower.gazebo" />    

</robot>
