<?xml version="1.0"?>
<!--
  Трансмиссии
-->
<robot name="gazonbot" xmlns:xacro="http://www.ros.org/wiki/xacro">

    <transmission name="tran_right">
        <type>transmission_interface/SimpleTransmission</type>
        <joint name="pin_right_wheel_right">
        <hardwareInterface>hardware_interface/EffortJointInterface</hardwareInterface>
        </joint>
        <actuator name="motor_right">
        <hardwareInterface>hardware_interface/EffortJointInterface</hardwareInterface>
        <mechanicalReduction>1</mechanicalReduction>
        </actuator>
    </transmission>

    <transmission name="tran_left">
        <type>transmission_interface/SimpleTransmission</type>
        <joint name="pin_left_wheel_left">
        <hardwareInterface>hardware_interface/EffortJointInterface</hardwareInterface>
        </joint>
        <actuator name="motor_left">
        <hardwareInterface>hardware_interface/EffortJointInterface</hardwareInterface>
        <mechanicalReduction>1</mechanicalReduction>
        </actuator>
    </transmission>

</robot>